<svg xmlns="http://www.w3.org/2000/svg" xmlns:xlink="http://www.w3.org/1999/xlink" width="65" height="57" viewBox="0 0 65 57">
    <defs>
        <path id="a" d="M0 57h64.632V.518H0z"/>
    </defs>
    <g fill="none" fill-rule="evenodd">
        <path fill="#FA0" d="M64.343 41.257c.174 1.6.252 3.257.287 4.419a2.327 2.327 0 0 1-1.566 2.26c-2.45.867-8.096 2.236-19.422 2.292-11.326-.056-16.973-1.425-19.423-2.292a2.327 2.327 0 0 1-1.566-2.26c.035-1.162.113-2.818.288-4.419.316-2.897 2.023-3.676 2.023-3.676l13.002-3.495.694-2.068c-.97-1.194-1.924-2.794-2.791-4.729a11.347 11.347 0 0 1-.391-1.024.643.643 0 0 1-.683-.091c-.833-.633-2.024-5.325-1.155-5.908.283-.19.498-.176.668-.083l-1.135-3.828s-1.155-5.408 3.177-5.916c0 0 1.037-2.44 4.774-3.284 5.87-1.326 13.416 4.187 12.151 10.7 0 0-.181.844-.435 2.284.155-.048.343-.029.576.127.869.583-.323 5.275-1.155 5.908a.648.648 0 0 1-.5.142c-.103.334-.211.661-.333.973-.707 1.806-1.732 3.482-2.83 4.762l.72 2.035 13 3.495s1.709.779 2.025 3.676z"/>
        <mask id="b" fill="#fff">
            <use xlink:href="#a"/>
        </mask>
        <path fill="#FA0" d="M27.398 37.397h14.664V22.93H27.398z" mask="url(#b)"/>
        <path fill="#FFDA00" d="M54.42 45.29c-.414-3.781-2.642-4.799-2.642-4.799l-16.972-4.56-.938-2.658c1.432-1.671 2.77-3.858 3.693-6.215.16-.407.301-.835.434-1.27a.849.849 0 0 0 .654-.186c1.087-.826 2.642-6.951 1.507-7.711-.303-.204-.549-.23-.751-.168.33-1.878.569-2.98.569-2.98C41.624 6.243 31.775-.952 24.112.777c-4.879 1.103-6.231 4.287-6.231 4.287-5.655.663-4.148 7.723-4.148 7.723l1.482 4.996c-.221-.12-.503-.139-.872.109-1.134.76.42 6.885 1.508 7.71a.842.842 0 0 0 .891.12c.154.46.32.91.51 1.337 1.132 2.525 2.378 4.614 3.643 6.172l-.905 2.7-16.971 4.561s-2.23 1.018-2.642 4.8c-.228 2.088-.33 4.25-.376 5.766a3.036 3.036 0 0 0 2.045 2.95C5.244 55.14 12.615 56.926 27.398 57c14.783-.074 22.155-1.86 25.353-2.993a3.036 3.036 0 0 0 2.044-2.95c-.046-1.516-.148-3.678-.376-5.767" mask="url(#b)"/>
    </g>
</svg>
