<svg xmlns="http://www.w3.org/2000/svg" width="16" height="16" viewBox="0 0 16 16">
    <path fill="#633EA5" fill-rule="evenodd" d="M7.94 5.918a.667.667 0 1 1 .001-1.333.667.667 0 0 1 0 1.333m0 5.458a.667.667 0 0 1-.667-.667v-3.2a.667.667 0 0 1 1.333 0v3.2a.666.666 0 0 1-.666.667M7.94 0a7.941 7.941 0 1 0 0 15.882A7.941 7.941 0 0 0 7.941 0"/>
</svg>
