<svg xmlns="http://www.w3.org/2000/svg" xmlns:xlink="http://www.w3.org/1999/xlink" width="40" height="40" viewBox="0 0 40 40">
    <defs>
        <path id="a" d="M13 0H0v21h13V0z"/>
    </defs>
    <g fill="none" fill-rule="evenodd">
        <rect width="40" height="40" fill="#00B998" rx="2"/>
        <g transform="translate(14 11)">
            <mask id="b" fill="#fff">
                <use xlink:href="#a"/>
            </mask>
            <path fill="#FFF" d="M13 0H0v3.24H3.823c2.208 0 4.007 1.623 4.007 3.613s-1.8 3.61-4.007 3.61H.338l.111 3.255L10.355 21l2.225-2.544-6.657-5.017c3.175-.824 5.502-3.464 5.502-6.586 0-1.329-.437-2.562-1.166-3.612H13V0z" mask="url(#b)"/>
        </g>
    </g>
</svg>
