<svg xmlns="http://www.w3.org/2000/svg" xmlns:xlink="http://www.w3.org/1999/xlink" width="40" height="40" viewBox="0 0 40 40">
    <defs>
        <path id="a" d="M19.83 26.582l-5.504 3.056a.5.5 0 0 1-.736-.518l1.058-6.514-4.507-4.64a.5.5 0 0 1 .283-.842l6.203-.952 2.75-5.884a.5.5 0 0 1 .906 0l2.75 5.884 6.202.952a.5.5 0 0 1 .283.843l-4.506 4.639 1.058 6.514a.5.5 0 0 1-.737.518l-5.503-3.056z"/>
    </defs>
    <g fill="none" fill-rule="evenodd">
        <rect width="40" height="40" fill="#FFBE00" rx="2"/>
        <use fill="#FFF" stroke="#FFF" xlink:href="#a"/>
    </g>
</svg>
