<svg xmlns="http://www.w3.org/2000/svg" width="40" height="40" viewBox="0 0 40 40">
    <g fill="none" fill-rule="evenodd">
        <rect width="40" height="40" fill="#EB3B8C" rx="2"/>
        <g fill="#FFF">
            <path d="M9.5 16.542a2.863 2.863 0 0 0 2.848 2.613 2.863 2.863 0 0 0 2.542-1.56 2.864 2.864 0 0 0 2.543 1.56 2.864 2.864 0 0 0 2.544-1.56 2.862 2.862 0 0 0 2.542 1.56 2.864 2.864 0 0 0 2.543-1.56 2.862 2.862 0 0 0 2.542 1.56 2.864 2.864 0 0 0 2.848-2.613H9.5zM9.5 16.542L13.97 10h12.98l3.502 6.542zM27.332 20.468a3.271 3.271 0 0 1-2.051-.725v6.937H14.562v-7.366a3.273 3.273 0 0 1-2.488 1.154c-.306 0-.597-.054-.878-.132v9.68c0 .482.391.874.875.874h15.702a.875.875 0 0 0 .875-.875v-9.827c-.404.176-.847.28-1.316.28"/>
        </g>
    </g>
</svg>
