<svg xmlns="http://www.w3.org/2000/svg" width="40" height="40" viewBox="0 0 40 40">
    <g fill="none" fill-rule="evenodd">
        <rect width="40" height="40" fill="#FFBE00" rx="2"/>
        <path fill="#FFF" d="M15.55 15.764h8.984v-1.54h-8.985v1.54zm0 4.17h5.905v-1.539H15.55v1.54zm-3.238-9.186v18.164c0 .183.222.275.351.145l1.154-1.154a.7.7 0 0 1 .99 0l1.06 1.061a.532.532 0 0 0 .751 0l1.062-1.061a.7.7 0 0 1 .988 0l1.061 1.061a.532.532 0 0 0 .752 0l1.06-1.061a.7.7 0 0 1 .99 0l1.06 1.061a.53.53 0 0 0 .75 0l1.062-1.061a.7.7 0 0 1 .988 0l1.029 1.028c.129.13.35.038.35-.145V10.748H12.313z"/>
    </g>
</svg>
