<?xml version="1.0" encoding="UTF-8"?>
<svg width="16px" height="16px" viewBox="0 0 16 16" version="1.1" xmlns="http://www.w3.org/2000/svg" xmlns:xlink="http://www.w3.org/1999/xlink">
    <!-- Generator: sketchtool 41.2 (35397) - http://www.bohemiancoding.com/sketch -->
    <title>00F98726-D651-4080-B778-7F5D6FD8E839</title>
    <desc>Created with sketchtool.</desc>
    <defs></defs>
    <g id="Page-1" stroke="none" stroke-width="1" fill="none" fill-rule="evenodd" opacity="0.5">
        <g id="Sidebar" transform="translate(-23.000000, -722.000000)" fill="#FFFFFF">
            <g id="users-16px_circle-08" transform="translate(23.000000, 722.000000)">
                <g id="Group">
                    <circle id="Oval" cx="8" cy="7" r="3"></circle>
                    <path d="M8,0 C3.6,0 0,3.6 0,8 C0,12.4 3.6,16 8,16 C12.4,16 16,12.4 16,8 C16,3.6 12.4,0 8,0 Z M12,12.4 C11.4,11.7 10.6,11 9,11 L7,11 C5.4,11 4.6,11.7 4,12.4 C2.8,11.3 2,9.8 2,8 C2,4.7 4.7,2 8,2 C11.3,2 14,4.7 14,8 C14,9.8 13.2,11.3 12,12.4 Z" id="Shape"></path>
                </g>
            </g>
        </g>
    </g>
</svg>