<?xml version="1.0" encoding="UTF-8"?>
<svg width="5px" height="10px" viewBox="0 0 5 10" version="1.1" xmlns="http://www.w3.org/2000/svg" xmlns:xlink="http://www.w3.org/1999/xlink">
    <g id="Page-1" stroke="none" stroke-width="1" fill="#000" fill-rule="evenodd" opacity="1">
        <g id="Benefit-Details---Transfer_Report_VD" transform="translate(-1263.000000, -792.000000)" fill="#343434">
            <g id="arrows-16px-4_stre-right" transform="translate(1263.000000, 792.000000)">
                <path d="M1.17111111,9.67222222 L0.327777778,8.94888889 L3.71277778,5 L0.327777778,1.05111111 L1.17111111,0.327777778 L4.86611111,4.63888889 C5.04444444,4.84666667 5.04444444,5.15388889 4.86611111,5.36166667 L1.17111111,9.67222222 Z" id="Shape"></path>
            </g>
        </g>
    </g>
</svg>