<svg xmlns="http://www.w3.org/2000/svg" width="7" height="11" viewBox="0 0 7 11">
    <path fill="#FFF" fill-rule="nonzero" d="M1.306 10.794L6.6 5.5 1.306.206.275 1.17 4.606 5.5.275 9.831z" opacity=".7"/>
</svg>
