<svg xmlns="http://www.w3.org/2000/svg" width="12" height="10" viewBox="0 0 12 10">
    <path fill="#190F27" fill-rule="evenodd" d="M9.75 3.825V3.75C9.75 1.65 8.1 0 6 0 4.125 0 2.55 1.35 2.325 3.225.975 3.675 0 4.875 0 6.375 0 8.25 1.5 9.75 3.375 9.75H9c1.65 0 3-1.35 3-3 0-1.425-.975-2.55-2.25-2.925zM6 8.25l-3-3h2.25V3h1.5v2.25H9l-3 3z"/>
</svg>
