<svg xmlns="http://www.w3.org/2000/svg" width="7" height="5" viewBox="0 0 7 5">
    <g fill="none" fill-rule="evenodd" stroke="#633EA5" stroke-linecap="round" stroke-linejoin="round" stroke-width=".784">
        <path d="M3.47 3.924L7 1zM3.47 3.924L0 1.006"/>
    </g>
</svg>
