<?xml version="1.0" encoding="UTF-8"?>
<svg width="16px" height="16px" viewBox="0 0 16 16" version="1.1" xmlns="http://www.w3.org/2000/svg" xmlns:xlink="http://www.w3.org/1999/xlink">
    <!-- Generator: sketchtool 42 (36781) - http://www.bohemiancoding.com/sketch -->
    <title>F9E33ECC-BB28-40E8-82D5-4AA374ECBB00</title>
    <desc>Created with sketchtool.</desc>
    <defs></defs>
    <g id="Page-1" stroke="none" stroke-width="1" fill="none" fill-rule="evenodd">
        <g id="Year-End-Closure---Trigger-1.1" transform="translate(-300.000000, -232.000000)" fill="#FFFFFF">
            <g id="Group-26" transform="translate(240.000000, 0.000000)">
                <g id="Group-25" transform="translate(0.000000, 220.000000)">
                    <g id="Group-20" transform="translate(60.000000, 0.000000)">
                        <g id="Group-7">
                            <g id="Group-27" transform="translate(0.000000, 12.000000)">
                                <g id="ui-16px-2_alert-circle-!">
                                    <path d="M8,0 C3.6,0 0,3.6 0,8 C0,12.4 3.6,16 8,16 C12.4,16 16,12.4 16,8 C16,3.6 12.4,0 8,0 Z M8,12 C7.4,12 7,11.6 7,11 C7,10.4 7.4,10 8,10 C8.6,10 9,10.4 9,11 C9,11.6 8.6,12 8,12 Z M9,9 L7,9 L7,4 L9,4 L9,9 Z" id="Shape"></path>
                                </g>
                            </g>
                        </g>
                    </g>
                </g>
            </g>
        </g>
    </g>
</svg>