<?xml version="1.0" encoding="UTF-8"?>
<svg width="12px" height="12px" viewBox="0 0 12 12" version="1.1" xmlns="http://www.w3.org/2000/svg" xmlns:xlink="http://www.w3.org/1999/xlink">
    <!-- Generator: sketchtool 42 (36781) - http://www.bohemiancoding.com/sketch -->
    <title>0FC85FA2-EAED-4FCE-B1F4-D0D687E40BDD</title>
    <desc>Created with sketchtool.</desc>
    <defs></defs>
    <g id="Page-1" stroke="none" stroke-width="1" fill="none" fill-rule="evenodd" opacity="0.300000012">
        <g id="Year-End-Closure---Trigger-1.3" transform="translate(-761.000000, -422.000000)" fill="#190F27">
            <g id="Group-3" transform="translate(430.000000, 90.000000)">
                <g id="Group-7" transform="translate(40.000000, 316.000000)">
                    <g id="Group-4" transform="translate(20.000000, 15.000000)">
                        <g id="Group-6" transform="translate(0.000000, 1.000000)">
                            <g id="ui-16px-e_round-e-help" transform="translate(271.000000, 0.000000)">
                                <g id="Group">
                                    <path d="M6,0 C2.7,0 0,2.7 0,6 C0,9.3 2.7,12 6,12 C9.3,12 12,9.3 12,6 C12,2.7 9.3,0 6,0 Z M6,10.5 C3.525,10.5 1.5,8.475 1.5,6 C1.5,3.525 3.525,1.5 6,1.5 C8.475,1.5 10.5,3.525 10.5,6 C10.5,8.475 8.475,10.5 6,10.5 Z" id="Shape"></path>
                                    <circle id="Oval" cx="6" cy="9" r="0.75"></circle>
                                    <path d="M5.325,4.125 C5.475,3.9 5.7,3.75 6,3.75 C6.45,3.75 6.75,4.05 6.75,4.5 C6.75,4.725 6.675,4.8 6.3,5.025 C5.85,5.325 5.25,5.775 5.25,6.75 L5.25,7.5 L6.75,7.5 L6.75,6.75 C6.75,6.6 6.75,6.525 7.125,6.3 C7.575,6 8.25,5.55 8.25,4.5 C8.25,3.225 7.275,2.25 6,2.25 C5.175,2.25 4.425,2.7 4.05,3.375 L3.675,4.05 L4.95,4.8 L5.325,4.125 Z" id="Shape"></path>
                                </g>
                            </g>
                        </g>
                    </g>
                </g>
            </g>
        </g>
    </g>
</svg>