<?xml version="1.0" encoding="UTF-8"?>
<svg width="34px" height="34px" viewBox="0 0 34 34" version="1.1" xmlns="http://www.w3.org/2000/svg" xmlns:xlink="http://www.w3.org/1999/xlink">
    <!-- Generator: sketchtool 41.2 (35397) - http://www.bohemiancoding.com/sketch -->
    <title>B09ACDFE-B6E7-4F73-B6BA-54925982A610</title>
    <desc>Created with sketchtool.</desc>
    <defs></defs>
    <g id="Page-1" stroke="none" stroke-width="1" fill="none" fill-rule="evenodd">
        <g id="Benefit-Details---Transfer_Report_VD" transform="translate(-544.000000, -376.000000)">
            <g id="Group-6" transform="translate(544.000000, 375.000000)">
                <g id="spent_by_employees" transform="translate(0.000000, 1.000000)">
                    <rect id="Rectangle" fill="#4A90E2" x="0" y="0" width="33.9393939" height="34" rx="1.7"></rect>
                    <g id="shopping-16px-2_cheque" transform="translate(10.181818, 10.200000)" fill="#FFFEFE">
                        <g id="Group">
                            <path d="M8.48484848,11.9 L8.48484848,11.9 L8.48484848,10.2 L0,10.2 L0,11.05 C0,12.45845 1.13951515,13.6 2.54545455,13.6 L8.95660606,13.6 C8.66472727,13.09765 8.48484848,12.5222 8.48484848,11.9 L8.48484848,11.9 Z" id="Shape"></path>
                            <path d="M3.39393939,0 L3.39393939,4.25 L3.39393939,8.5 L10.1818182,8.5 L10.1818182,11.9 C10.1818182,12.83925 10.9412121,13.6 11.8787879,13.6 C12.8163636,13.6 13.5757576,12.83925 13.5757576,11.9 L13.5757576,0 L3.39393939,0 L3.39393939,0 Z M11.8787879,6.8 L5.09090909,6.8 L5.09090909,5.1 L11.8787879,5.1 L11.8787879,6.8 L11.8787879,6.8 Z M11.8787879,3.4 L5.09090909,3.4 L5.09090909,1.7 L11.8787879,1.7 L11.8787879,3.4 L11.8787879,3.4 Z" id="Shape"></path>
                        </g>
                    </g>
                </g>
            </g>
        </g>
    </g>
</svg>