<svg xmlns="http://www.w3.org/2000/svg" width="6" height="4" viewBox="0 0 6 4">
    <g fill="none" fill-rule="evenodd">
        <path fill="" d="M-672-367H705v979H-672z"/>
        <path fill="#FFF" fill-rule="nonzero" d="M3 3.429L6 0H0z"/>
    </g>
</svg>
