<svg xmlns="http://www.w3.org/2000/svg" width="14" height="16" viewBox="0 0 14 16">
    <path fill="#FFF" fill-rule="evenodd" d="M13 0H1C.4 0 0 .4 0 1v15l3-2 2 2 2-2 2 2 2-2 3 2V1c0-.6-.4-1-1-1zm-2 10H3V8h8v2zm0-4H3V4h8v2z"/>
</svg>
