Emp Code,Name,Email or Mobile,Amount,Allow prepaid?,No. of mobile connections,No. of landline connections,No. of data card connections,No. of broadband connections,Yearly eligibility
1234,John Doe,john.doe@acme.com,1,yes,1,1,1,1,60000
ABCD,Jane Doe,9884098840,1,no,1,1,1,1,60000
A123,Ashok Kumar,ashok.kumar@acme.com,1,no,2,2,2,2,84000
