Emp Code,Name,Email or Mobile,Amount,Eligibility,No. of claims allowed in current LTA block,No. of claims carried forward from previous LTA block
1234,John Doe,john.doe@acme.com,10000,50000,2,0
ABCD,John Doe,9884098840,10000,50000,0,1
A123,Ashok Kumar,ashok.kumar@acme.com,10000,50000,no limit,2
