<?xml version="1.0" encoding="UTF-8"?>
<svg width="7px" height="5px" viewBox="0 0 7 5" version="1.1" xmlns="http://www.w3.org/2000/svg" xmlns:xlink="http://www.w3.org/1999/xlink">
    <!-- Generator: sketchtool 42 (36781) - http://www.bohemiancoding.com/sketch -->
    <title>C5229FA7-7D3C-4103-BB3D-FADB75270721</title>
    <desc>Created with sketchtool.</desc>
    <defs></defs>
    <g id="Page-1" stroke="none" stroke-width="1" fill="none" fill-rule="evenodd" stroke-linecap="round" stroke-linejoin="round">
        <g id="Tata---MBS-1.6" transform="translate(-1238.000000, -582.000000)" stroke="#190F27" stroke-width="0.783999985">
            <g id="Group-15" transform="translate(300.000000, 333.000000)">
                <g id="Mask-Copy-3" transform="translate(0.000000, 97.000000)">
                    <g id="Group-23" transform="translate(30.000000, 30.000000)">
                        <g id="Group-14" transform="translate(804.000000, 47.000000)">
                            <g id="Group-7-Copy-2" transform="translate(0.000000, 60.000000)">
                                <g id="down_arrow" transform="translate(107.500000, 17.500000) rotate(-270.000000) translate(-107.500000, -17.500000) translate(106.000000, 14.000000)">
                                    <polygon id="Stroke-52" points="2.92429412 3.52944118 0 0"></polygon>
                                    <path d="M2.92429412,3.52944118 L0.00564705882,7" id="Stroke-56"></path>
                                </g>
                            </g>
                        </g>
                    </g>
                </g>
            </g>
        </g>
    </g>
</svg>