<?xml version="1.0" encoding="UTF-8"?>
<svg width="35px" height="34px" viewBox="0 0 35 34" version="1.1" xmlns="http://www.w3.org/2000/svg" xmlns:xlink="http://www.w3.org/1999/xlink">
    <!-- Generator: sketchtool 42 (36781) - http://www.bohemiancoding.com/sketch -->
    <title>11F9C593-9010-4A12-80C7-C01AC9C2AA7B</title>
    <desc>Created with sketchtool.</desc>
    <defs></defs>
    <g id="Page-1" stroke="none" stroke-width="1" fill="none" fill-rule="evenodd">
        <g id="Tata---MBS-1.5" transform="translate(-750.000000, -438.000000)">
            <g id="Group-5" transform="translate(750.000000, 437.000000)">
                <g id="transferred" transform="translate(0.000000, 1.000000)">
                    <rect id="Rectangle" fill="#FF8B00" x="0" y="0" width="34.0909091" height="34" rx="1.7"></rect>
                    <g id="business-16px_coins" transform="translate(11.931818, 10.200000)" fill="#FFFEFE">
                        <g id="Group">
                            <path d="M5.11363636,5.1 C7.58522727,5.1 10.2272727,4.335 10.2272727,2.55 C10.2272727,0.765 7.58522727,0 5.11363636,0 C2.64204545,0 0,0.765 0,2.55 C0,4.335 2.64204545,5.1 5.11363636,5.1 L5.11363636,5.1 Z" id="Shape"></path>
                            <path d="M0,5.525 L0,6.8 C0,8.585 2.64204545,9.35 5.11363636,9.35 C7.58522727,9.35 10.2272727,8.585 10.2272727,6.8 L10.2272727,5.525 C9.03409091,6.29 7.24431818,6.8 5.11363636,6.8 C2.98295455,6.8 1.19318182,6.29 0,5.525 L0,5.525 Z" id="Shape"></path>
                            <path d="M0,9.775 L0,11.05 C0,12.835 2.64204545,13.6 5.11363636,13.6 C7.58522727,13.6 10.2272727,12.835 10.2272727,11.05 L10.2272727,9.775 C9.03409091,10.625 7.24431818,11.05 5.11363636,11.05 C2.98295455,11.05 1.19318182,10.54 0,9.775 L0,9.775 Z" id="Shape"></path>
                        </g>
                    </g>
                </g>
            </g>
        </g>
    </g>
</svg>