<svg xmlns="http://www.w3.org/2000/svg" width="24" height="24" viewBox="0 0 24 24">
    <g fill="none" fill-rule="nonzero">
        <path fill="#343434" d="M12 18l6-6-6-6v4.5H0v3h12z"/>
        <path fill="#DCDADE" d="M22.5 24H9c-.9 0-1.5-.6-1.5-1.5V18h3v3H21V3H10.5v3h-3V1.5C7.5.6 8.1 0 9 0h13.5c.9 0 1.5.6 1.5 1.5v21c0 .9-.6 1.5-1.5 1.5z"/>
    </g>
</svg>
