Company Shortcode,Name,Email or Mobile,Amount,PAN or Aadhaar,Yearly Eligibility
DISPL,John Doe,john.doe@acme.com,1250,ABCDE1234F,15000
BWTPL,Jane Doe,9876543210,1250,123456789012,15000
VSPL,Ashok Kumar,ashok.kumar@acme.com,1250,BBBBB1234B,15000