<svg xmlns="http://www.w3.org/2000/svg" width="32" height="32" viewBox="0 0 32 32">
    <path fill="#00B998" fill-rule="evenodd" d="M0 2.002C0 .896.89 0 2.002 0h27.996C31.104 0 32 .89 32 2.002v27.996C32 31.104 31.11 32 29.998 32H2.002A1.997 1.997 0 0 1 0 29.998V2.002zm16.504 5.724c-1.063 0-.274 1.985-.88 2.94-.642 1.007-3.722 5.106-3.722 5.353v7.85c0 .246.2.446.448.446H20.772a1.313 1.313 0 0 0 1.14-1.964 1.313 1.313 0 0 0 .532-2.352 1.313 1.313 0 0 0-.077-2.623h.398a1.459 1.459 0 1 0 0-2.917H17.953s-.417-.213-.191-1.273c.132-.623 1.617-4.72-1.06-5.44a1.104 1.104 0 0 0-.198-.02zm-8.335 8.192c-.247 0-.447.2-.447.447v7.503c0 .247.2.447.447.447h2.556c.247 0 .447-.2.447-.447v-7.503c0-.247-.2-.447-.447-.447H8.17z"/>
</svg>
