<svg xmlns="http://www.w3.org/2000/svg" xmlns:xlink="http://www.w3.org/1999/xlink" width="12" height="12" viewBox="0 0 12 12">
    <defs>
        <path id="a" d="M5.937 9.544l-2.503 1.39a.5.5 0 0 1-.736-.518l.485-2.985-2.079-2.14a.5.5 0 0 1 .283-.842l2.848-.437L5.484 1.34a.5.5 0 0 1 .906 0l1.249 2.673 2.847.437a.5.5 0 0 1 .283.843L8.69 7.432l.485 2.984a.5.5 0 0 1-.736.518l-2.502-1.39z"/>
    </defs>
    <g fill="none" fill-rule="evenodd" opacity=".3">
        <path d="M0 0h11.824v12H0z" opacity=".5"/>
        <use stroke="#190F27" xlink:href="#a"/>
    </g>
</svg>
