Name,Email or Mobile,emp code,Amount,PAN or Aadhaar,,,,,
John Doe,john.doe@acme.com,1234,5000,ABCDE1234F,,,,,
Jane Doe,9884098840,1235,5000,123456789012,,,,,
Ashok Kumar,ashok.kumar@acme.com,1236,5000,BBBBB1234B,,,,,
,,,,,,,,,
,,,,,,,,,
,,,,,,,,,
,,,,,,,,,
,,,,,,,,,
,,,,,,,,,
,,,,,,,,,
,,,,,,,,,
,,,,,,,,,
,,,,,,,,,