Name,Email or Mobile,emp code,Amount,Yearly Eligibility,PAN or Aadhaar,,,,,
John Doe,john.doe@acme.com,1234,1250,60000,ABCDE1234F,,,,,
Jane Doe,9884098840,1235,1250,60000,123456789012,,,,,
Ashok Kumar,ashok.kumar@acme.com,1236,1250,60000,BBBBB1234B,,,,,
,,,,,,,,,,
,,,,,,,,,,
,,,,,,,,,,
,,,,,,,,,,
,,,,,,,,,,
,,,,,,,,,,
,,,,,,,,,,
,,,,,,,,,,
,,,,,,,,,,
,,,,,,,,,,