<?xml version="1.0" encoding="UTF-8"?>
<svg width="72px" height="72px" viewBox="0 0 72 72" version="1.1" xmlns="http://www.w3.org/2000/svg" xmlns:xlink="http://www.w3.org/1999/xlink">
    <!-- Generator: sketchtool 42 (36781) - http://www.bohemiancoding.com/sketch -->
    <title>2BD6D9C7-EDFA-48C4-AE1F-6D6EF19B2A99</title>
    <desc>Created with sketchtool.</desc>
    <defs>
        <linearGradient x1="50%" y1="0%" x2="50%" y2="100%" id="linearGradient-1">
            <stop stop-color="#E3E3E3" offset="0%"></stop>
            <stop stop-color="#C5C5C5" offset="100%"></stop>
        </linearGradient>
        <polygon id="path-2" points="31.1211818 0.308209091 31.1211818 11.4545455 0.000149413198 11.4545455 0.000149413198 0.308209091 31.1211818 0.308209091"></polygon>
        <polygon id="path-4" points="0.000327272727 0.000163636364 20.0061818 0.000163636364 20.0061818 11.1462545 0.000327272727 11.1462545 0.000327272727 0.000163636364"></polygon>
    </defs>
    <g id="Spotlight-consolidated-FINAL" stroke="none" stroke-width="1" fill="none" fill-rule="evenodd">
        <g id="7.3b---integration-early-access-registered" transform="translate(-482.000000, -773.000000)">
            <g id="Group-14-Copy" transform="translate(429.000000, 469.000000)">
                <g id="Group-23" transform="translate(42.000000, 294.000000)">
                    <g id="Group-22" transform="translate(0.000000, 10.000000)">
                        <g id="Group-20" transform="translate(11.000000, 0.000000)">
                            <g id="account-manager">
                                <circle id="Oval-4" fill="url(#linearGradient-1)" cx="36" cy="36" r="36"></circle>
                                <g id="Page-1" transform="translate(20.454545, 19.636364)">
                                    <path d="M8.22280909,10.5399 C8.08944545,10.4662636 7.91926364,10.4548091 7.69753636,10.6061727 C7.01435455,11.0700818 7.95035455,14.8108091 8.60571818,15.3148091 C8.79308182,15.4588091 8.97553636,15.4579909 9.14244545,15.3876273 C9.23571818,15.6682636 9.33471818,15.9431727 9.45008182,16.2033545 C10.1308091,17.7456273 10.8819,19.0195364 11.6444455,19.9710818 C11.6444455,19.9710818 13.4599909,21.6573545 14.8468091,21.9216273 C16.2336273,22.1850818 17.9272636,21.5076273 19.4572636,19.9980818 C20.3196273,18.9778091 21.1263545,17.6425364 21.6819,16.2033545 C21.7776273,15.9546273 21.8627182,15.6936273 21.9437182,15.4285364 C22.0689,15.4457182 22.2014455,15.4187182 22.3364455,15.3148091 C22.9918091,14.8108091 23.9278091,11.0700818 23.2454455,10.6061727 C23.0621727,10.4826273 22.9140818,10.4662636 22.7921727,10.5047182 C22.9918091,9.35762727 23.1349909,8.68426364 23.1349909,8.68426364 C24.1290818,3.49453636 18.1972636,-0.898281818 13.5810818,0.158809091 C10.6429909,0.830536364 9.82808182,2.77535455 9.82808182,2.77535455 C6.42280909,3.17953636 7.33017273,7.48971818 7.33017273,7.48971818 L8.22280909,10.5399 Z" id="Fill-1" fill="#979797"></path>
                                    <g id="Group-5" transform="translate(0.000000, 21.669136)">
                                        <mask id="mask-3" fill="white">
                                            <use xlink:href="#path-2"></use>
                                        </mask>
                                        <g id="Clip-4"></g>
                                        <path d="M31.0591636,9.0513 C30.8472545,8.23066364 30.6263455,7.3323 30.4234364,6.48957273 C29.9251636,4.4163 28.3550727,2.77011818 26.3071636,2.17775455 L20.0227091,0.358118182 C20.0227091,0.358118182 18.0819818,2.3103 15.5603455,2.30866364 C14.0156182,2.30784545 12.4463455,1.46020909 11.1151636,0.308209091 L11.0988,0.358118182 L4.81434545,2.17775455 C2.76561818,2.77011818 1.19552727,4.4163 0.698072727,6.48957273 C0.495163636,7.3323 0.274254545,8.23066364 0.0623454545,9.0513 C-0.252654545,10.2703909 0.668618182,11.4551182 1.9278,11.4551182 L29.1937091,11.4551182 C30.4528909,11.4551182 31.3741636,10.2703909 31.0591636,9.0513" id="Fill-3" fill="#979797" mask="url(#mask-3)"></path>
                                        <g id="Page-1" opacity="0.100000001" mask="url(#mask-3)">
                                            <g transform="translate(11.045455, 0.339975)">
                                                <mask id="mask-5" fill="white">
                                                    <use xlink:href="#path-4"></use>
                                                </mask>
                                                <g id="Clip-2" stroke="none" fill="none"></g>
                                                <path d="M19.9443273,8.74300909 C19.7324182,7.92237273 19.5115091,7.02400909 19.3086,6.18128182 C18.8103273,4.10800909 17.2402364,2.46182727 15.1923273,1.86946364 L8.90787273,0.0498272727 C8.90787273,0.0498272727 6.96714545,2.00200909 4.44632727,2.00037273 C2.90078182,1.99955455 1.33150909,1.15191818 0.000327272727,-8.18181818e-05 L11.1464182,11.1468273 L18.0788727,11.1468273 C19.3380545,11.1468273 20.2593273,9.9621 19.9443273,8.74300909" id="Fill-1" stroke="none" fill="#000000" fill-rule="evenodd" mask="url(#mask-5)"></path>
                                            </g>
                                        </g>
                                    </g>
                                </g>
                            </g>
                        </g>
                    </g>
                </g>
            </g>
        </g>
    </g>
</svg>