<?xml version="1.0" encoding="UTF-8"?>
<svg width="24px" height="24px" viewBox="0 0 24 24" version="1.1" xmlns="http://www.w3.org/2000/svg" xmlns:xlink="http://www.w3.org/1999/xlink">
    <!-- Generator: sketchtool 42 (36781) - http://www.bohemiancoding.com/sketch -->
    <title>CFDE9ED7-6A96-4153-82CC-01726CC986CA</title>
    <desc>Created with sketchtool.</desc>
    <defs>
        <rect id="path-1" x="0" y="0" width="24" height="24" rx="12"></rect>
        <mask id="mask-2" maskContentUnits="userSpaceOnUse" maskUnits="objectBoundingBox" x="0" y="0" width="24" height="24" fill="white">
            <use xlink:href="#path-1"></use>
        </mask>
    </defs>
    <g id="Spotlight-consolidated-FINAL" stroke="none" stroke-width="1" fill="none" fill-rule="evenodd">
        <g id="6.1-Reset-PIN-requests" transform="translate(-1176.000000, -491.000000)">
            <g id="Group-6" transform="translate(300.000000, 235.000000)">
                <g id="Group-5" transform="translate(30.000000, 203.000000)">
                    <g id="Group-9" transform="translate(846.000000, 53.000000)">
                        <g id="Group-4">
                            <use id="Rectangle-3" stroke-opacity="0.28" stroke="#00B898" mask="url(#mask-2)" stroke-width="2" xlink:href="#path-1"></use>
                            <path d="M10.8313635,13.5370634 L8.70352219,11.4092221 C8.32182397,11.0275239 7.68635388,11.0252188 7.29582959,11.4157431 C6.90258263,11.80899 6.90238576,12.4365128 7.28930863,12.8234357 L10.1307777,15.6649047 C10.321344,15.855471 10.5751653,15.9514699 10.8301788,15.9512294 C11.0899583,15.9516956 11.3430278,15.8538262 11.5367341,15.66012 L16.4899539,10.7069001 C16.8797347,10.3171193 16.878742,9.68494704 16.4882177,9.29442274 C16.0949708,8.90117579 15.4653058,8.90312113 15.0757404,9.29268655 L10.8313635,13.5370634 L10.8313635,13.5370634 Z" id="Combined-Shape" fill="#00B898"></path>
                        </g>
                    </g>
                </g>
            </g>
        </g>
    </g>
</svg>