<?xml version="1.0" encoding="UTF-8"?>
<svg width="52px" height="52px" viewBox="0 0 52 52" version="1.1" xmlns="http://www.w3.org/2000/svg" xmlns:xlink="http://www.w3.org/1999/xlink">
    <!-- Generator: sketchtool 42 (36781) - http://www.bohemiancoding.com/sketch -->
    <title>C565353E-D80B-4F56-98B4-4CD2F270025F</title>
    <desc>Created with sketchtool.</desc>
    <defs></defs>
    <g id="Spotlight-consolidated-FINAL" stroke="none" stroke-width="1" fill="none" fill-rule="evenodd">
        <g id="carousel-assets" transform="translate(-506.000000, -42.000000)">
            <g id="small" transform="translate(32.000000, 32.000000)">
                <g id="business-gifting" transform="translate(464.000000, 0.000000)">
                    <g id="Group-34-Copy-13" transform="translate(10.000000, 10.000000)">
                        <rect id="business-gifting" x="0" y="0" width="52" height="52"></rect>
                        <g id="Group-74" transform="translate(3.120000, 9.256000)">
                            <path d="M22.2971747,33.1954377 L22.3275189,33.2257823 L40.5057247,15.0473657 L30.8106816,5.35221023 L25.599596,5.71577856 L9.78515461,21.5304033 C8.94819571,22.3673719 8.94774417,23.7239146 9.78455695,24.5607371 C10.6211858,25.3973756 11.9769425,25.3980622 12.8148556,24.5601394 L13.1478238,24.2271673 L13.0572317,24.3177605 C12.2202728,25.1547291 12.2198212,26.5112718 13.056634,27.3480943 C13.8932628,28.1847328 15.2490195,28.1854194 16.0869326,27.3474966 L16.268117,27.1663101 L16.2693291,27.1675222 C15.4928297,28.0082106 15.5123895,29.3191205 16.328711,30.1354515 C17.1448756,30.9516255 18.4550824,30.9722429 19.2966082,30.1948364 L19.3282101,30.2264387 C18.7772341,31.0584426 18.8679239,32.1899361 19.6007881,32.9228087 C20.3335874,33.6556165 21.4646578,33.7470881 22.2971747,33.1954377 L22.2971747,33.1954377 Z" id="Combined-Shape" fill="#FFAC00"></path>
                            <path d="M33.5980065,0.14106414 L30.3253457,3.41376287 C29.9240863,3.81502697 29.924516,4.46603435 30.325089,4.86661198 L40.9913173,15.532964 C41.392435,15.9340863 42.0431812,15.9336803 42.4441496,15.5327073 L45.7168104,12.2600085 L33.5980065,0.14106414 Z" id="Rectangle-52-Copy" fill="#FF3291"></path>
                            <path d="M23.4628253,33.1954377 L23.4324811,33.2257823 L5.25427527,15.0473657 L14.9493184,5.35221023 L20.160404,5.71577856 L35.9748454,21.5304033 C36.8118043,22.3673719 36.8122558,23.7239146 35.9754431,24.5607371 C35.1388142,25.3973756 33.7830575,25.3980622 32.9451444,24.5601394 L32.6121762,24.2271673 L32.7027683,24.3177605 C33.5397272,25.1547291 33.5401788,26.5112718 32.703366,27.3480943 C31.8667372,28.1847328 30.5109805,28.1854194 29.6730674,27.3474966 L29.491883,27.1663101 L29.4906709,27.1675222 C30.2671703,28.0082106 30.2476105,29.3191205 29.431289,30.1354515 C28.6151244,30.9516255 27.3049176,30.9722429 26.4633918,30.1948364 L26.4317899,30.2264387 C26.9827659,31.0584426 26.8920761,32.1899361 26.1592119,32.9228087 C25.4264126,33.6556165 24.2953422,33.7470881 23.4628253,33.1954377 L23.4628253,33.1954377 Z" id="Combined-Shape" fill="#FFD42A"></path>
                            <path d="M12.1619935,0.14106414 L15.4346543,3.41376287 C15.8359137,3.81502697 15.835484,4.46603435 15.434911,4.86661198 L4.76868266,15.532964 C4.36756499,15.9340863 3.71681878,15.9336803 3.31585039,15.5327073 L0.0431896088,12.2600085 L12.1619935,0.14106414 Z" id="Rectangle-52-Copy" fill="#8768B2"></path>
                            <path d="M15.2462907,13.0184267 C14.3814795,12.1536054 14.3920577,10.7606797 15.268887,9.90824236 L20.5572251,4.7670171 L25.7599734,5.68415652 L18.2994265,12.9371632 C17.4216725,13.7904996 16.0074229,13.7795677 15.144233,12.9163678 L15.2462907,13.0184267 Z" id="Rectangle-53" fill="#FFAC00"></path>
                        </g>
                    </g>
                </g>
            </g>
        </g>
    </g>
</svg>