<svg xmlns="http://www.w3.org/2000/svg" width="27" height="28" viewBox="0 0 27 28">
    <path fill="#000" fill-rule="nonzero" d="M7.765 9.415l1.2.212c.141.522.35 1.023.621 1.492l-.699.996a.92.92 0 0 0 .102 1.182l.719.719a.922.922 0 0 0 1.183.101l.997-.698c.468.27.97.479 1.493.62l.211 1.2c.078.44.46.76.908.761h1.03c.446 0 .83-.322.906-.762l.212-1.2a6.215 6.215 0 0 0 1.49-.62l.998.699a.922.922 0 0 0 1.182-.101l.72-.719a.92.92 0 0 0 .1-1.182l-.71-.996c.267-.47.472-.97.61-1.492l1.2-.212A.921.921 0 0 0 23 8.508V7.492a.921.921 0 0 0-.762-.907l-1.2-.212a6.209 6.209 0 0 0-.621-1.492l.699-.996a.92.92 0 0 0-.079-1.182l-.73-.719a.922.922 0 0 0-1.183-.104l-.986.698c-.468-.27-.97-.479-1.493-.62L16.434.76A.922.922 0 0 0 15.529 0h-1.032a.922.922 0 0 0-.907.762l-.212 1.2a6.218 6.218 0 0 0-1.493.616l-.994-.698a.922.922 0 0 0-1.183.104l-.72.719a.92.92 0 0 0-.1 1.182l.698.996c-.272.468-.482.97-.623 1.492l-1.2.212A.921.921 0 0 0 7 7.492v1.016c0 .448.324.831.765.907zM15.51 5a3.5 3.5 0 1 1-.006 0h.006zM5.853 28L0 22.465l4.191-4.042c1.737-1.675 4.308-2.239 6.618-1.453l.918.313h5.667c.482 0 .943.19 1.277.526.334.337.513.791.494 1.258-.055.954-.876 1.695-1.86 1.68h-3.388a.684.684 0 0 0-.694.672c0 .372.311.674.694.674h3.4c1.723 0 3.147-1.304 3.244-2.974v-.043l3.147-3.438a1.945 1.945 0 0 1 2.615-.243 1.766 1.766 0 0 1 .215 2.578l-6.28 6.97a4.465 4.465 0 0 1-3.321 1.467H7.49L5.853 28zM14 8a2 2 0 1 1 4 0 2 2 0 0 1-4 0z"/>
</svg>
