<?xml version="1.0" encoding="UTF-8"?>
<svg width="160px" height="160px" viewBox="0 0 160 160" version="1.1" xmlns="http://www.w3.org/2000/svg" xmlns:xlink="http://www.w3.org/1999/xlink">
    <!-- Generator: sketchtool 42 (36781) - http://www.bohemiancoding.com/sketch -->
    <title>69FB9BF0-415E-4FD0-BC9C-C35F4AC25BE4</title>
    <desc>Created with sketchtool.</desc>
    <defs>
        <linearGradient x1="50%" y1="100%" x2="50%" y2="0%" id="linearGradient-1">
            <stop stop-color="#866FE2" offset="0%"></stop>
            <stop stop-color="#9F91D7" offset="100%"></stop>
        </linearGradient>
        <rect id="path-2" x="0" y="0" width="96.0288809" height="57.5342466" rx="1.91780822"></rect>
        <linearGradient x1="50%" y1="0%" x2="50%" y2="100%" id="linearGradient-4">
            <stop stop-color="#E2E2E2" offset="0%"></stop>
            <stop stop-color="#C4C4C4" offset="100%"></stop>
        </linearGradient>
        <rect id="path-5" x="0" y="0" width="96.0288809" height="57.5342466" rx="1.91780822"></rect>
        <linearGradient x1="50%" y1="98.7424267%" x2="50%" y2="0%" id="linearGradient-7">
            <stop stop-color="#7100B3" offset="0%"></stop>
            <stop stop-color="#8600B3" offset="100%"></stop>
        </linearGradient>
        <rect id="path-8" x="0" y="0" width="96.0288809" height="57.5342466" rx="1.91780822"></rect>
        <rect id="path-10" x="-6.11364309e-12" y="7.76730278e-13" width="96.0288809" height="57.5342466" rx="1.91780822"></rect>
        <rect id="path-12" x="-1.63758297e-13" y="6.81342349e-15" width="96.0288809" height="57.5342466" rx="1.91780822"></rect>
        <linearGradient x1="50%" y1="100%" x2="50%" y2="0%" id="linearGradient-14">
            <stop stop-color="#FFA200" offset="0%"></stop>
            <stop stop-color="#FFBF00" offset="100%"></stop>
        </linearGradient>
        <rect id="path-15" x="-1.63758297e-13" y="6.81342349e-15" width="96.0288809" height="57.5342466" rx="1.91780822"></rect>
    </defs>
    <g id="Spotlight-consolidated-FINAL" stroke="none" stroke-width="1" fill="none" fill-rule="evenodd">
        <g id="7.1b---digigift-early-access-registered" transform="translate(-316.000000, -551.000000)">
            <g id="Group-18" transform="translate(229.000000, 290.000000)">
                <g id="Group-4" transform="translate(40.000000, 261.000000)">
                    <g id="Group-3" transform="translate(47.000000, 0.000000)">
                        <rect id="Rectangle" x="0" y="0" width="160" height="160"></rect>
                        <g id="Group-18-Copy-2" transform="translate(14.000000, 10.000000)">
                            <g id="grey" transform="translate(55.696751, 52.260274) rotate(-38.000000) translate(-55.696751, -52.260274) translate(7.682310, 23.493151)">
                                <mask id="mask-3" fill="white">
                                    <use xlink:href="#path-2"></use>
                                </mask>
                                <use id="Rectangle-10-Copy" fill="url(#linearGradient-1)" xlink:href="#path-2"></use>
                                <rect id="Rectangle-10" fill="url(#linearGradient-4)" mask="url(#mask-3)" x="0" y="0" width="96.0288809" height="57.5342466" rx="1.91780822"></rect>
                                <ellipse id="Oval-2" fill-opacity="0.3" fill="#FFFFFF" mask="url(#mask-3)" cx="84.5054152" cy="41.7123288" rx="21.1263538" ry="21.0958904"></ellipse>
                                <ellipse id="Oval-2-Copy" fill-opacity="0.3" fill="#FFFFFF" mask="url(#mask-3)" cx="84.0252708" cy="39.3150685" rx="21.1263538" ry="21.0958904"></ellipse>
                                <rect id="Rectangle-11-Copy-4" fill-opacity="0.100000001" fill="#FFFFFF" mask="url(#mask-3)" x="7.68231047" y="41.2328767" width="36.4909747" height="2.87671233" rx="0.479452055"></rect>
                                <rect id="Rectangle-11-Copy-3" fill-opacity="0.2" fill="#FFFFFF" mask="url(#mask-3)" x="7.68231047" y="36.4383562" width="31.6895307" height="2.87671233" rx="0.479452055"></rect>
                                <rect id="Rectangle-11-Copy-2" fill-opacity="0.3" fill="#FFFFFF" mask="url(#mask-3)" x="7.68231047" y="31.6438356" width="46.0938628" height="2.87671233" rx="0.479452055"></rect>
                                <rect id="Rectangle-11-Copy" fill-opacity="0.200000018" fill="#FFFFFF" mask="url(#mask-3)" x="7.68231047" y="7.67123288" width="31.6895307" height="9.5890411" rx="0.95890411"></rect>
                            </g>
                            <g id="pink" transform="translate(68.660650, 66.643836) rotate(-22.000000) translate(-68.660650, -66.643836) translate(20.646209, 37.876712)">
                                <mask id="mask-6" fill="white">
                                    <use xlink:href="#path-5"></use>
                                </mask>
                                <use id="Rectangle-10-Copy-2" fill="#FFFFFF" xlink:href="#path-5"></use>
                                <mask id="mask-9" fill="white">
                                    <use xlink:href="#path-8"></use>
                                </mask>
                                <use id="Rectangle-10-Copy" fill="url(#linearGradient-7)" opacity="0.419999987" xlink:href="#path-8"></use>
                                <ellipse id="Oval-2" fill-opacity="0.159999996" fill="#FFFFFF" mask="url(#mask-9)" cx="84.5054152" cy="41.7123288" rx="21.1263538" ry="21.0958904"></ellipse>
                                <ellipse id="Oval-2-Copy" fill-opacity="0.159999996" fill="#FFFFFF" mask="url(#mask-9)" cx="84.0252708" cy="39.3150685" rx="21.1263538" ry="21.0958904"></ellipse>
                                <rect id="Rectangle-11-Copy-4" fill-opacity="0.0599999987" fill="#FFFFFF" mask="url(#mask-9)" x="7.68231047" y="41.2328767" width="36.4909747" height="2.87671233" rx="0.479452055"></rect>
                                <rect id="Rectangle-11-Copy-3" fill-opacity="0.129999995" fill="#FFFFFF" mask="url(#mask-9)" x="7.68231047" y="36.4383562" width="31.6895307" height="2.87671233" rx="0.479452055"></rect>
                                <rect id="Rectangle-11-Copy-2" fill-opacity="0.160000011" fill="#FFFFFF" mask="url(#mask-9)" x="7.68231047" y="31.6438356" width="46.0938628" height="2.87671233" rx="0.479452055"></rect>
                                <rect id="Rectangle-11-Copy" fill-opacity="0.119999997" fill="#FFFFFF" mask="url(#mask-9)" x="7.68231047" y="7.67123288" width="31.6895307" height="9.5890411" rx="0.95890411"></rect>
                            </g>
                            <g id="blue" transform="translate(77.783394, 83.904110) rotate(-6.000000) translate(-77.783394, -83.904110) translate(29.768953, 55.136986)">
                                <mask id="mask-11" fill="white">
                                    <use xlink:href="#path-10"></use>
                                </mask>
                                <use id="Rectangle-10-Copy" fill="url(#linearGradient-1)" xlink:href="#path-10"></use>
                                <ellipse id="Oval-2" fill-opacity="0.0700000003" fill="#FFFFFF" mask="url(#mask-11)" cx="84.5054152" cy="41.7123288" rx="21.1263538" ry="21.0958904"></ellipse>
                                <ellipse id="Oval-2-Copy" fill-opacity="0.0700000003" fill="#FFFFFF" mask="url(#mask-11)" cx="84.0252708" cy="39.3150685" rx="21.1263538" ry="21.0958904"></ellipse>
                                <rect id="Rectangle-11-Copy-4" fill-opacity="0.0599999987" fill="#FFFFFF" mask="url(#mask-11)" x="7.68231047" y="41.2328767" width="36.4909747" height="2.87671233" rx="0.479452055"></rect>
                                <rect id="Rectangle-11-Copy-3" fill-opacity="0.119999997" fill="#FFFFFF" mask="url(#mask-11)" x="7.68231047" y="36.4383562" width="31.6895307" height="2.87671233" rx="0.479452055"></rect>
                                <rect id="Rectangle-11-Copy-2" fill-opacity="0.159999996" fill="#FFFFFF" mask="url(#mask-11)" x="7.68231047" y="31.6438356" width="46.0938628" height="2.87671233" rx="0.479452055"></rect>
                                <rect id="Rectangle-11-Copy" fill-opacity="0.119999997" fill="#FFFFFF" mask="url(#mask-11)" x="7.68231047" y="7.67123288" width="31.6895307" height="9.5890411" rx="0.95890411"></rect>
                            </g>
                            <g id="yellow" transform="translate(80.664260, 103.082192) rotate(10.000000) translate(-80.664260, -103.082192) translate(32.649819, 74.315068)">
                                <mask id="mask-13" fill="white">
                                    <use xlink:href="#path-12"></use>
                                </mask>
                                <use id="Rectangle-10-Copy-2" fill="#FFFFFF" xlink:href="#path-12"></use>
                                <mask id="mask-16" fill="white">
                                    <use xlink:href="#path-15"></use>
                                </mask>
                                <use id="Rectangle-10-Copy" fill="url(#linearGradient-14)" opacity="0.719999969" xlink:href="#path-15"></use>
                                <ellipse id="Oval-2" fill-opacity="0.200000018" fill="#FFFFFF" mask="url(#mask-16)" cx="84.5054152" cy="41.7123288" rx="21.1263538" ry="21.0958904"></ellipse>
                                <ellipse id="Oval-2-Copy" fill-opacity="0.200000018" fill="#FFFFFF" mask="url(#mask-16)" cx="84.0252708" cy="39.3150685" rx="21.1263538" ry="21.0958904"></ellipse>
                                <rect id="Rectangle-11-Copy-4" fill-opacity="0.119999997" fill="#FFFFFF" mask="url(#mask-16)" x="7.68231047" y="41.2328767" width="36.4909747" height="2.87671233" rx="0.479452055"></rect>
                                <rect id="Rectangle-11-Copy-3" fill-opacity="0.200000003" fill="#FFFFFF" mask="url(#mask-16)" x="7.68231047" y="36.4383562" width="31.6895307" height="2.87671233" rx="0.479452055"></rect>
                                <rect id="Rectangle-11-Copy-2" fill-opacity="0.239999995" fill="#FFFFFF" mask="url(#mask-16)" x="7.68231047" y="31.6438356" width="46.0938628" height="2.87671233" rx="0.479452055"></rect>
                                <rect id="Rectangle-11-Copy" fill-opacity="0.219999999" fill="#FFFFFF" mask="url(#mask-16)" x="7.68231047" y="7.67123288" width="31.6895307" height="9.5890411" rx="0.95890411"></rect>
                            </g>
                        </g>
                    </g>
                </g>
            </g>
        </g>
    </g>
</svg>