<?xml version="1.0" encoding="UTF-8"?>
<svg width="9px" height="129px" viewBox="0 0 9 129" version="1.1" xmlns="http://www.w3.org/2000/svg" xmlns:xlink="http://www.w3.org/1999/xlink">
    <!-- Generator: sketchtool 42 (36781) - http://www.bohemiancoding.com/sketch -->
    <title>8BD89BAD-E40D-42BA-9323-F81F7E42B689</title>
    <desc>Created with sketchtool.</desc>
    <defs></defs>
    <g id="Spotlight-consolidated-FINAL" stroke="none" stroke-width="1" fill="none" fill-rule="evenodd">
        <g id="7.1b---digigift-early-access-registered" transform="translate(-504.000000, -866.000000)" fill="#EDEDED">
            <g id="Group-18" transform="translate(229.000000, 290.000000)">
                <g id="Group-23" transform="translate(158.000000, 576.000000)">
                    <g id="Group-25" transform="translate(117.000000, 0.000000)">
                        <path d="M5.5,129 L5,129 L5,51 L0,46 L5,41 L5,0 L5.5,0 L9,0 L9,1 L6,1 L6,42 L2,46 L6,50 L6,128 L9,128 L9,129 L5.5,129 Z" id="Combined-Shape"></path>
                    </g>
                </g>
            </g>
        </g>
    </g>
</svg>