<svg xmlns="http://www.w3.org/2000/svg" width="46" height="23" viewBox="0 0 46 23">
    <path fill="#000" fill-rule="nonzero" d="M23.153 5.134c-.869.12-1.618.419-2.249.898-.817.616-1.226 1.498-1.226 2.644 0 1.13.323 1.968.97 2.516.563.445 1.398.83 2.505 1.155.17.051.358.103.563.154.8.189 1.363.385 1.686.59.034 0 .06.017.077.052.307.205.46.488.46.847 0 .36-.137.65-.409.873a.318.318 0 0 0-.128.077c-.272.154-.622.23-1.048.23-.408 0-.809-.068-1.2-.205-.767-.273-1.568-.77-2.403-1.488l-1.584 1.95c1.192 1.113 2.521 1.789 3.986 2.028v1.155h2.25v-1.155c.817-.137 1.516-.436 2.095-.898.8-.684 1.2-1.566 1.2-2.644s-.314-1.9-.945-2.464c-.579-.514-1.363-.908-2.35-1.181a1.074 1.074 0 0 0-.307-.103c-.937-.205-1.585-.394-1.943-.565a3.4 3.4 0 0 0-.23-.128c-.306-.223-.46-.505-.46-.847 0-.36.12-.642.358-.847a.696.696 0 0 1 .332-.18c.205-.102.443-.154.716-.154.511 0 1.022.086 1.533.257.562.205 1.133.522 1.712.95l1.355-1.977a6.275 6.275 0 0 0-2.096-1.155 8.577 8.577 0 0 0-.97-.282V4.03h-2.25v1.104zm21.365 10.781c0-.36-.128-.667-.384-.924a1.241 1.241 0 0 0-.945-.41c-.358 0-.665.136-.92.41a1.248 1.248 0 0 0-.409.796v.128c0 .376.136.702.409.976.255.256.562.385.92.385.375 0 .69-.129.945-.385.256-.274.384-.6.384-.976zM7.513 14.888c.222-.24.35-.522.384-.847v-.128c0-.36-.128-.667-.384-.924-.272-.274-.587-.41-.945-.41-.375 0-.69.136-.946.41a1.225 1.225 0 0 0-.409.924c0 .376.137.702.41.975.255.257.57.385.945.385.358 0 .673-.128.945-.385zm8.817-13.27c-2.164.461-3.246 2.001-3.246 4.62v10.524c0 2.619 1.082 4.159 3.246 4.62-1.329-.889-1.993-2.43-1.993-4.62V6.238c0-2.19.664-3.731 1.993-4.62zM1.866 5.723a1.252 1.252 0 0 0-.41.95c0 .36.137.676.41.95.255.257.562.385.92.385.374 0 .69-.128.945-.385a1.57 1.57 0 0 0 .409-.822v-.128c0-.376-.136-.693-.409-.95a1.282 1.282 0 0 0-.945-.385c-.358 0-.665.129-.92.385zm39.023 1.618c-.375 0-.69.128-.946.385-.221.222-.35.496-.383.821v.128c0 .36.128.676.383.95.256.257.571.385.946.385.358 0 .673-.128.945-.385a1.35 1.35 0 0 0 .384-.95c0-.376-.128-.693-.384-.95a1.338 1.338 0 0 0-.945-.384zm-6.338.308v.077h3.68c.137-.394.358-.745.665-1.053a2.706 2.706 0 0 1 1.993-.821c.784 0 1.448.273 1.993.821.528.547.792 1.215.792 2.002 0 .787-.264 1.455-.792 2.003-.545.53-1.21.795-1.993.795-.784 0-1.448-.265-1.993-.795-.426-.428-.682-.916-.767-1.464H34.55v3.055h1.457c.204 0 .374.077.51.231a.698.698 0 0 1 .205.514v1.976h3.808c.137-.394.367-.744.69-1.052.528-.548 1.184-.822 1.968-.822s1.448.274 1.993.822c.545.547.818 1.206.818 1.976 0 .787-.272 1.455-.818 2.002a2.706 2.706 0 0 1-1.993.822c-.784 0-1.44-.274-1.968-.822-.426-.427-.681-.915-.767-1.463h-4.446c-.222 0-.392-.068-.511-.205a.66.66 0 0 1-.23-.514v-2.002h-.716v.206c-.102 5.955-2.087 8.975-5.954 9.061H17.863c-4.157 0-6.235-2.08-6.235-6.238v-1.9H9.226a2.758 2.758 0 0 1-.665 1.053 2.707 2.707 0 0 1-1.993.822 2.708 2.708 0 0 1-1.994-.822c-.545-.548-.817-1.215-.817-2.002 0-.77.272-1.43.817-1.977a2.706 2.706 0 0 1 1.994-.821c.783 0 1.448.274 1.993.821.409.428.665.916.767 1.464h2.3v-3.08H9.992a.691.691 0 0 1-.51-.206.66.66 0 0 1-.23-.514V7.598H5.442a2.987 2.987 0 0 1-.664 1.078c-.545.53-1.21.796-1.993.796-.784 0-1.44-.265-1.968-.796C.273 8.13 0 7.461 0 6.674c0-.787.273-1.454.818-2.002.528-.548 1.184-.822 1.968-.822.783 0 1.448.274 1.993.822.426.428.681.915.767 1.463h4.446c.205 0 .375.077.511.231.137.12.205.291.205.513v1.977h.92V6.238C11.628 2.079 13.706 0 17.863 0h10.734c3.833.086 5.818 2.635 5.954 7.65z"/>
</svg>
