<svg xmlns="http://www.w3.org/2000/svg" xmlns:xlink="http://www.w3.org/1999/xlink" width="5" height="5" viewBox="0 0 5 5">
    <defs>
        <linearGradient id="b" x1="49.093%" x2="49.093%" y1="0%" y2="98.883%">
            <stop offset="0%" stop-color="#805BD3"/>
            <stop offset="100%" stop-color="#594EC4"/>
        </linearGradient>
        <path id="a" d="M0 0h1000v815H0z"/>
        <path id="c" d="M4 0h412a4 4 0 0 1 4 4v584a4 4 0 0 1-4 4H4a4 4 0 0 1-4-4V4a4 4 0 0 1 4-4z"/>
        <filter id="d" width="103.3%" height="102.4%" x="-1.7%" y="-.8%" filterUnits="objectBoundingBox">
            <feOffset dy="2" in="SourceAlpha" result="shadowOffsetOuter1"/>
            <feGaussianBlur in="shadowOffsetOuter1" result="shadowBlurOuter1" stdDeviation="2"/>
            <feColorMatrix in="shadowBlurOuter1" values="0 0 0 0 0 0 0 0 0 0 0 0 0 0 0 0 0 0 0.0604902627 0"/>
        </filter>
        <path id="g" d="M360 195.546V202H0v-6.454c1.165-.37 2-1.37 2-2.546h4c0 1.491 1.343 2.7 3 2.7s3-1.209 3-2.7h4c0 1.491 1.343 2.7 3 2.7s3-1.209 3-2.7h4c0 1.491 1.343 2.7 3 2.7s3-1.209 3-2.7h4c0 1.491 1.343 2.7 3 2.7s3-1.209 3-2.7h4c0 1.491 1.343 2.7 3 2.7s3-1.209 3-2.7h4c0 1.491 1.343 2.7 3 2.7s3-1.209 3-2.7h4c0 1.491 1.343 2.7 3 2.7s3-1.209 3-2.7h4c0 1.491 1.343 2.7 3 2.7s3-1.209 3-2.7h4c0 1.491 1.343 2.7 3 2.7s3-1.209 3-2.7h4c0 1.491 1.343 2.7 3 2.7s3-1.209 3-2.7h4c0 1.491 1.343 2.7 3 2.7s3-1.209 3-2.7h4c0 1.491 1.343 2.7 3 2.7s3-1.209 3-2.7h4c0 1.491 1.343 2.7 3 2.7s3-1.209 3-2.7h4c0 1.491 1.343 2.7 3 2.7s3-1.209 3-2.7h4c0 1.491 1.343 2.7 3 2.7s3-1.209 3-2.7h4c0 1.491 1.343 2.7 3 2.7s3-1.209 3-2.7h4c0 1.491 1.343 2.7 3 2.7s3-1.209 3-2.7h4c0 1.491 1.343 2.7 3 2.7s3-1.209 3-2.7h4c0 1.491 1.343 2.7 3 2.7s3-1.209 3-2.7h4c0 1.491 1.343 2.7 3 2.7s3-1.209 3-2.7h4c0 1.491 1.343 2.7 3 2.7s3-1.209 3-2.7h4c0 1.491 1.343 2.7 3 2.7s3-1.209 3-2.7h4c0 1.491 1.343 2.7 3 2.7s3-1.209 3-2.7h4c0 1.491 1.343 2.7 3 2.7s3-1.209 3-2.7h4c0 1.491 1.343 2.7 3 2.7s3-1.209 3-2.7h4c0 1.491 1.343 2.7 3 2.7s3-1.209 3-2.7h4c0 1.491 1.343 2.7 3 2.7s3-1.209 3-2.7h4c0 1.491 1.343 2.7 3 2.7s3-1.209 3-2.7h4c0 1.491 1.343 2.7 3 2.7s3-1.209 3-2.7h4c0 1.491 1.343 2.7 3 2.7s3-1.209 3-2.7h4c0 1.491 1.343 2.7 3 2.7s3-1.209 3-2.7h4c0 1.491 1.343 2.7 3 2.7s3-1.209 3-2.7h4c0 1.491 1.343 2.7 3 2.7s3-1.209 3-2.7h4c0 1.491 1.343 2.7 3 2.7s3-1.209 3-2.7h4c0 1.491 1.343 2.7 3 2.7s3-1.209 3-2.7h4c0 1.491 1.343 2.7 3 2.7.35 0 .687-.054 1-.154z"/>
        <filter id="f" width="100.6%" height="144.4%" x="-.3%" y="-33.3%" filterUnits="objectBoundingBox">
            <feOffset dy="-2" in="SourceAlpha" result="shadowOffsetOuter1"/>
            <feColorMatrix in="shadowOffsetOuter1" values="0 0 0 0 0.0980392157 0 0 0 0 0.0588235294 0 0 0 0 0.152941176 0 0 0 0.239215353 0"/>
        </filter>
    </defs>
    <g fill="none" fill-rule="evenodd">
        <g transform="translate(-312 -437)">
            <use fill="#633EA5" xlink:href="#a"/>
            <use fill="url(#b)" xlink:href="#a"/>
        </g>
        <g transform="translate(-49 -337)">
            <mask id="e" fill="#fff">
                <use xlink:href="#c"/>
            </mask>
            <use fill="#000" filter="url(#d)" xlink:href="#c"/>
            <use fill="#FFF" xlink:href="#c"/>
            <g mask="url(#e)">
                <g transform="matrix(1 0 0 -1 30 533)">
                    <use fill="#000" filter="url(#f)" xlink:href="#g"/>
                    <use fill="#F1EFF2" xlink:href="#g"/>
                </g>
            </g>
        </g>
    </g>
</svg>
