<?xml version="1.0" encoding="UTF-8"?>
<svg width="241px" height="180px" viewBox="0 0 241 180" version="1.1" xmlns="http://www.w3.org/2000/svg" xmlns:xlink="http://www.w3.org/1999/xlink">
    <!-- Generator: sketchtool 42 (36781) - http://www.bohemiancoding.com/sketch -->
    <title>47A8A1D2-B669-4904-95A0-284FA1BD8374</title>
    <desc>Created with sketchtool.</desc>
    <defs></defs>
    <g id="Spotlight-consolidated-FINAL" stroke="none" stroke-width="1" fill="none" fill-rule="evenodd">
        <g id="1.1-Landing-page" transform="translate(-320.000000, -1035.000000)">
            <g id="integration" transform="translate(300.000000, 1015.000000)">
                <g id="Group-6" transform="translate(20.000000, 20.000000)">
                    <rect id="Rectangle-73" x="0" y="0" width="240" height="180" rx="2"></rect>
                    <g id="Page-1" transform="translate(50.000000, 28.000000)">
                        <g id="2" transform="translate(59.000000, 0.000000)">
                            <path d="M53.2313,33.3264 C52.4183,34.5604 50.9873,35.2444 49.5093,35.2444 C47.6313,35.2444 46.1093,33.7234 46.1093,31.8454 L46.1093,11.7794 C46.1093,10.5534 45.1163,9.5594 43.8903,9.5594 L-6.7807,9.5594 C-8.0057,9.5594 -8.9997,10.5534 -8.9997,11.7794 L-8.9997,62.4494 C-8.9997,63.6754 -8.0057,64.6694 -6.7807,64.6694 L10.4913,64.6694 C11.4063,64.6694 11.8323,63.5644 11.1763,62.9274 C9.0773,60.8894 7.8683,57.9434 8.1923,54.7184 C8.6583,50.0904 12.3873,46.3164 17.0113,45.8034 C23.0543,45.1344 28.1693,49.8474 28.1693,55.7544 C28.1693,58.5804 26.9973,61.1284 25.1133,62.9464 C24.4643,63.5734 24.9133,64.6694 25.8153,64.6694 L43.8903,64.6694 C45.1163,64.6694 46.1093,63.6754 46.1093,62.4494 L46.1093,42.0774 C46.1093,40.1994 47.6313,38.6784 49.5093,38.6784 C51.1443,38.6784 52.5263,39.3034 53.3483,40.4594 C54.4933,42.0704 56.3733,43.1204 58.5003,43.1204 C62.0523,43.1204 64.9193,40.1904 64.8163,36.6144 C64.7243,33.4614 62.2013,30.7784 59.0583,30.5084 C56.6253,30.2994 54.4543,31.4714 53.2313,33.3264 Z" id="Fill-3-Copy" fill="#FDD442" transform="translate(27.909646, 37.114400) rotate(90.000000) translate(-27.909646, -37.114400) "></path>
                            <polygon id="Fill-25" fill="#FFFFFF" opacity="0.159999996" points="40.5051 0.3658 18.9011 0.3658 55.0051 36.4698 55.0051 14.8648"></polygon>
                        </g>
                        <g id="4" transform="translate(0.000000, 40.000000)" fill="#FDAD0C">
                            <path d="M45.1603,36.066 C40.5343,36.534 36.7633,40.262 36.2513,44.884 C35.5813,50.927 40.2943,56.043 46.2023,56.043 C49.1033,56.043 51.7123,54.806 53.5393,52.835 C54.0973,52.232 55.1093,52.656 55.1093,53.476 L55.1093,71.673 C55.1093,72.899 54.1163,73.892 52.8903,73.892 L2.2193,73.892 C0.9933,73.892 0.0003,72.899 0.0003,71.673 L0.0003,21.003 C0.0003,19.776 0.9933,18.783 2.2193,18.783 L21.0493,18.783 C23.3923,18.783 25.2923,16.883 25.2923,14.54 L25.2923,14.493 C25.2923,13.459 24.7833,12.463 23.8883,11.946 C22.0013,10.854 20.7303,8.816 20.7303,6.479 C20.7303,2.925 23.6633,0.057 27.2413,0.164 C30.3783,0.256 33.0523,2.755 33.3393,5.881 C33.5783,8.489 32.2313,10.801 30.1533,11.975 C29.2443,12.489 28.7253,13.495 28.7253,14.54 C28.7253,16.883 30.6253,18.783 32.9693,18.783 L52.8903,18.783 C54.1163,18.783 55.1093,19.776 55.1093,21.003 L55.1093,38.584 C55.1093,39.417 54.0923,39.817 53.5253,39.207 C51.4823,37.01 48.4673,35.732 45.1603,36.066 Z" id="Fill-1"></path>
                        </g>
                        <g id="1">
                            <path d="M62.2313,24.3264 C61.4183,25.5604 59.9873,26.2444 58.5093,26.2444 C56.6313,26.2444 55.1093,24.7234 55.1093,22.8454 L55.1093,2.7794 C55.1093,1.5534 54.1163,0.5594 52.8903,0.5594 L2.2193,0.5594 C0.9943,0.5594 0.0003,1.5534 0.0003,2.7794 L0.0003,53.4494 C0.0003,54.6754 0.9943,55.6694 2.2193,55.6694 L19.4913,55.6694 C20.4063,55.6694 20.8323,54.5644 20.1763,53.9274 C18.0773,51.8894 16.8683,48.9434 17.1923,45.7184 C17.6583,41.0904 21.3873,37.3164 26.0113,36.8034 C32.0543,36.1344 37.1693,40.8474 37.1693,46.7544 C37.1693,49.5804 35.9973,52.1284 34.1133,53.9464 C33.4643,54.5734 33.9133,55.6694 34.8153,55.6694 L52.8903,55.6694 C54.1163,55.6694 55.1093,54.6754 55.1093,53.4494 L55.1093,33.0774 C55.1093,31.1994 56.6313,29.6784 58.5093,29.6784 C60.1443,29.6784 61.5263,30.3034 62.3483,31.4594 C63.4933,33.0704 65.3733,34.1204 67.5003,34.1204 C71.0523,34.1204 73.9193,31.1904 73.8163,27.6144 C73.7243,24.4614 71.2013,21.7784 68.0583,21.5084 C65.6253,21.2994 63.4543,22.4714 62.2313,24.3264 Z" id="Fill-3" fill="#FDD442"></path>
                            <path d="M55.1096,2.7789 C55.1096,1.5529 54.1156,0.5589 52.8906,0.5589 L39.5266,0.5589 L55.1096,16.1429 L55.1096,2.7789 Z" id="Fill-27" fill="#FFFFFF" opacity="0.159999996"></path>
                        </g>
                        <g id="4" transform="translate(59.000000, 49.000000)">
                            <path d="M43.0139,21.8385 C43.5409,18.5665 45.5429,15.9865 48.1819,14.5755 C48.9259,14.1785 48.8229,13.0905 48.0079,12.8725 L28.8769,7.7735 L23.1739,29.1665 C22.5699,31.4315 20.2449,32.7765 17.9799,32.1735 C16.9719,31.9045 16.1329,31.1445 15.8699,30.1335 C15.2719,27.8225 13.3839,25.9255 10.8029,25.4845 C7.7089,24.9575 4.6059,26.8975 3.7069,29.9045 C2.6829,33.3335 4.6989,36.9065 8.1319,37.8215 C10.3909,38.4245 12.6869,37.7215 14.2279,36.1795 C14.9589,35.4475 16.0519,35.2125 17.0509,35.4785 L17.0959,35.4905 C19.3609,36.0945 20.7069,38.4195 20.1029,40.6845 L15.2529,58.8785 C14.9369,60.0635 15.6409,61.2785 16.8259,61.5945 L65.7869,74.6465 C66.9719,74.9625 68.1869,74.2585 68.5029,73.0735 L81.5549,24.1125 C81.8709,22.9285 81.1669,21.7125 79.9819,21.3965 L62.3999,16.7095 C61.6059,16.4975 60.9359,17.3665 61.3739,18.0615 C62.8099,20.3345 63.3319,23.1735 62.5849,25.9775 C61.0629,31.6855 54.9059,34.9215 49.2399,32.7185 C44.9059,31.0325 42.2739,26.4285 43.0139,21.8385" id="Fill-7" fill="#4B2F7C" opacity="0.100000001"></path>
                            <path d="M40.0358,14.69 C40.5628,11.418 42.5648,8.838 45.2028,7.428 C45.9478,7.03 45.8448,5.942 45.0298,5.725 L25.8978,0.625 L20.1948,22.018 C19.5918,24.283 17.2658,25.629 15.0018,25.026 C13.9928,24.756 13.1548,23.997 12.8918,22.985 C12.2928,20.675 10.4058,18.778 7.8248,18.337 C4.7298,17.81 1.6268,19.75 0.7288,22.757 C-0.2952,26.186 1.7208,29.759 5.1538,30.674 C7.4118,31.277 9.7088,30.574 11.2498,29.032 C11.9798,28.3 13.0738,28.064 14.0718,28.331 L14.1178,28.343 C16.3818,28.947 17.7288,31.272 17.1248,33.536 L12.2748,51.73 C11.9588,52.915 12.6628,54.13 13.8478,54.447 L62.8088,67.499 C63.9928,67.814 65.2088,67.11 65.5248,65.926 L78.5768,16.964 C78.8918,15.781 78.1878,14.564 77.0038,14.249 L59.4218,9.561 C58.6278,9.35 57.9578,10.219 58.3958,10.914 C59.8308,13.187 60.3538,16.026 59.6058,18.829 C58.0848,24.538 51.9278,27.774 46.2608,25.57 C41.9278,23.885 39.2958,19.281 40.0358,14.69" id="Fill-10" fill="#866FE2"></path>
                            <path d="M77.0041,14.2486 L59.4211,9.5616 C58.6281,9.3506 57.9581,10.2196 58.3961,10.9136 C59.8311,13.1866 60.3541,16.0256 59.6061,18.8286 C58.0851,24.5376 51.9281,27.7736 46.2611,25.5696 C41.9271,23.8856 39.2961,19.2806 40.0361,14.6896 C40.5631,11.4176 42.5651,8.8386 45.2031,7.4286 C45.9471,7.0296 45.8451,5.9416 45.0291,5.7256 L25.8981,0.6246 L22.6471,12.8196 L67.6771,57.8506 L78.5771,16.9646 C78.8921,15.7806 78.1881,14.5636 77.0041,14.2486" id="Fill-29" fill="#FFFFFF" opacity="0.159999996"></path>
                            <path d="M20.7062,21.7125 L26.2992,0.7325 L25.8982,0.6245 L20.1952,22.0185 C19.9252,23.0295 19.3022,23.8425 18.5042,24.3955 C19.5492,23.8695 20.3812,22.9315 20.7062,21.7125" id="Fill-31" fill="#9269D7"></path>
                            <path d="M55.4553,24.5963 C57.6723,23.3123 59.4053,21.1943 60.1173,18.5233 C60.8643,15.7193 60.3423,12.8803 58.9073,10.6073 C58.6783,10.2453 58.7553,9.8393 58.9893,9.5603 C58.4153,9.6863 58.0413,10.3523 58.3963,10.9133 C59.8313,13.1873 60.3533,16.0263 59.6063,18.8283 C58.9503,21.2923 57.4273,23.2923 55.4553,24.5963" id="Fill-33" fill="#9269D7"></path>
                            <path d="M63.3195,67.192 L14.3585,54.14 C13.1735,53.825 12.4695,52.608 12.7855,51.424 L17.6355,33.229 C18.2395,30.965 16.8925,28.64 14.6285,28.037 L14.5835,28.024 C13.7095,27.792 12.7775,27.965 12.0665,28.497 C12.6865,28.219 13.3975,28.151 14.0725,28.331 L14.1175,28.342 C16.3815,28.947 17.7285,31.272 17.1245,33.536 L12.2745,51.73 C11.9585,52.915 12.6625,54.13 13.8475,54.447 L62.8085,67.499 C63.5215,67.689 64.2425,67.504 64.7755,67.073 C64.3315,67.267 63.8245,67.327 63.3195,67.192" id="Fill-35" fill="#9269D7"></path>
                            <path d="M5.6647,30.3678 C2.2307,29.4528 0.2157,25.8798 1.2397,22.4508 C1.6707,21.0068 2.6127,19.8138 3.8147,19.0168 C2.3697,19.7948 1.2197,21.1148 0.7287,22.7578 C-0.2953,26.1858 1.7207,29.7598 5.1537,30.6748 C6.9697,31.1588 8.8027,30.7888 10.2547,29.8278 C8.8947,30.5548 7.2727,30.7968 5.6647,30.3678" id="Fill-37" fill="#9269D7"></path>
                        </g>
                    </g>
                </g>
            </g>
        </g>
    </g>
</svg>