<svg xmlns="http://www.w3.org/2000/svg" width="24" height="28" viewBox="0 0 24 28">
    <g fill="#000" fill-rule="nonzero">
        <path d="M3.548 0C5.388 0 6.88 1.462 6.88 3.265c0 1.804-1.492 3.265-3.333 3.265C1.708 6.53.215 5.07.215 3.265.215 1.462 1.707 0 3.548 0zM20.369 0c1.84 0 3.333 1.462 3.333 3.265 0 1.804-1.492 3.265-3.333 3.265-1.84 0-3.333-1.461-3.333-3.265C17.036 1.462 18.528 0 20.369 0zM9.641 3.355h.002c-.002-.03-.005-.06-.005-.09 0-1.23 1.02-2.226 2.278-2.226s2.278.997 2.278 2.226l.11 2.282c.59-.588.954-1.393.954-2.282C15.258 1.462 13.762 0 11.916 0c-1.845 0-3.341 1.462-3.341 3.265 0 .897.37 1.71.97 2.3l.096-2.21z"/>
        <path d="M10.039 13.254L4.594 15.53a2.965 2.965 0 0 0-1.807 3.042l1.62 7.654c.192.91.984 1.57 1.917 1.598l5.94.174a2.812 2.812 0 0 0 2.52-1.423l5.565-9.817a1.235 1.235 0 0 0-.441-1.669 1.241 1.241 0 0 0-1.52.193l-2.68 2.713c-.665.674-1.815.23-1.852-.716l-.54-14.044a1.386 1.386 0 0 0-1.386-1.33c-.739 0-1.348.577-1.385 1.314l-.506 10.034z"/>
    </g>
</svg>
