<?xml version="1.0" encoding="UTF-8"?>
<svg width="52px" height="52px" viewBox="0 0 52 52" version="1.1" xmlns="http://www.w3.org/2000/svg" xmlns:xlink="http://www.w3.org/1999/xlink">
    <!-- Generator: sketchtool 42 (36781) - http://www.bohemiancoding.com/sketch -->
    <title>7222C263-C7AF-4795-932A-B94DE229115A</title>
    <desc>Created with sketchtool.</desc>
    <defs></defs>
    <g id="Spotlight-consolidated-FINAL" stroke="none" stroke-width="1" fill="none" fill-rule="evenodd">
        <g id="5.1-FAQs-Card-ordering-and-Invoicing" transform="translate(-324.000000, -329.000000)">
            <g id="content" transform="translate(300.000000, 235.000000)">
                <g id="tab-2" transform="translate(0.000000, 80.000000)">
                    <g id="Group-6-Copy" transform="translate(24.000000, 14.000000)">
                        <rect id="loading-cards" x="0" y="0" width="52" height="52"></rect>
                        <g id="illus---loading" transform="translate(3.466667, 9.533333)">
                            <g id="Group-9" transform="translate(2.778082, 0.047013)">
                                <path d="M39.6465666,22.1266169 L9.5744442,32.8363005 C8.32461589,33.281846 6.94884785,32.6338078 6.50157662,31.3896605 L0.312626849,14.1694824 C-0.134335708,12.9256424 0.516352877,11.5561278 1.76618119,11.1105824 L31.8383036,0.400898727 C33.0881319,-0.0440321818 34.4638999,0.603391455 34.9111711,1.847846 L41.1001209,19.0677169 C41.5470835,20.3121715 40.8963949,21.681686 39.6465666,22.1266169" id="Fill-1" fill="#E5E5E5"></path>
                                <polygon id="Fill-3" fill="#FFFFFF" points="6.67573151 29.6318455 7.51810776 29.6318455 7.51810776 23.6231273 6.67573151 23.6231273"></polygon>
                                <path d="M39.7811492,33.4368958 L7.81067068,33.4368958 C6.48213005,33.4368958 5.40485151,32.364514 5.40485151,31.0417049 L5.40485151,12.7347031 C5.40485151,11.411894 6.48213005,10.3398195 7.81067068,10.3398195 L39.7811492,10.3398195 C41.1099985,10.3398195 42.1872771,11.411894 42.1872771,12.7347031 L42.1872771,31.0417049 C42.1872771,32.364514 41.1099985,33.4368958 39.7811492,33.4368958" id="Fill-5" fill="#7347BB"></path>
                                <path d="M16.7181591,14.7155982 C16.3687381,14.5094182 15.9637554,14.4295273 15.4800605,14.4713164 C14.7376952,14.5352291 14.1811527,14.8600164 13.8264842,15.4367673 C13.5190431,15.9370073 13.4313792,16.5036182 13.5659618,17.1206218 C13.6755417,17.6217836 13.9400769,18.0252327 14.3515417,18.3196 C14.7772057,18.6241073 15.2575052,18.7768218 15.7856495,18.7768218 C16.0168477,18.7768218 16.1106851,18.7780509 16.3594778,18.7181327 C16.8215655,18.6069 17.1873463,18.3408018 17.3163728,18.2559945 C17.3389061,18.2409382 17.3481664,18.2129764 17.3395235,18.1871655 C17.2882833,18.0396745 17.0793098,17.5710836 16.5165938,17.8771273 C16.3514522,17.9548673 16.2900258,17.9932764 15.9785719,18.0190873 C15.3819016,18.0691727 14.9034541,17.9112345 14.7500422,17.6310018 L17.5688696,16.71072 L17.5673262,16.7297709 C17.5701043,16.6941273 17.5741171,16.6594055 17.5775125,16.6252982 C17.5858468,16.5503236 17.5935637,16.4796509 17.5910942,16.4077491 C17.5861554,16.2599509 17.5775125,16.1020127 17.5491143,15.9511418 C17.4429299,15.3863745 17.1709865,14.9823109 16.7181591,14.7155982 Z M15.6297682,15.2345818 C15.7658942,15.2345818 15.8961554,15.2570127 16.0193171,15.3024891 C16.3289189,15.4158727 16.558265,15.6278909 16.6212349,15.9606673 C16.6280258,15.9960036 16.6317299,16.1084655 16.6320385,16.1564 L14.4518614,16.8824855 C14.2762248,15.9185709 14.8228897,15.4072691 15.251023,15.2886618 C15.3815929,15.2527109 15.5078413,15.2345818 15.6297682,15.2345818 Z" id="Fill-7" fill="#FFFFFF"></path>
                            </g>
                            <path d="M18.2581735,14.5180218 C17.5154995,14.5819345 16.9592658,14.9073364 16.6045973,15.48378 C16.2971562,15.98402 16.2091836,16.5506309 16.3440749,17.1673273 C16.4536548,17.6684891 16.7178813,18.0722455 17.1296548,18.3666127 C17.5553187,18.67112 18.0356183,18.8238345 18.5637626,18.8238345 C18.7949607,18.8238345 18.8887982,18.8250636 19.1375909,18.7651455 C19.5996785,18.6539127 19.9651507,18.3878145 20.0944858,18.3030073 C20.1170192,18.2879509 20.1262795,18.2599891 20.1176365,18.2341782 C20.0663963,18.0866873 19.8574228,17.6180964 19.2947068,17.92414 L19.2900767,17.9256764 C19.1295653,18.00188 19.0681388,18.0402891 18.7563763,18.0661 C18.1597059,18.1158782 17.6815671,17.9582473 17.5281553,17.6780145 L20.3469826,16.7577327 C20.3494521,16.7285418 20.3525388,16.7002727 20.3556256,16.6723109 C20.3639598,16.5973364 20.3716767,16.5266636 20.3692073,16.4547618 C20.3642685,16.3069636 20.3556256,16.1493327 20.3272274,15.9981545 C20.2207342,15.4333873 19.9490995,15.0290164 19.4962721,14.7626109 C19.2064256,14.59146 18.8783032,14.5075745 18.4989406,14.5075745 C18.4208457,14.5075745 18.34059,14.5109545 18.2581735,14.5180218 Z M18.0291361,15.3356745 C18.1593973,15.2997236 18.2859543,15.2815945 18.4078813,15.2815945 C18.5440073,15.2815945 18.6742685,15.3040255 18.7977388,15.3495018 C19.1067233,15.4628855 19.3363781,15.6749036 19.3990393,16.0079873 C19.4061388,16.0433236 19.4095342,16.1551709 19.4101516,16.2034127 L17.2299744,16.9294982 C17.0543379,15.9655836 17.6006941,15.4545891 18.0291361,15.3356745 Z M20.3469826,16.7577327 C20.3463653,16.7638782 20.3457479,16.7703309 20.3451306,16.7770909 L20.3469826,16.7574255 L20.3469826,16.7577327 Z" id="Clip-11"></path>
                            <path d="M12.3609224,14.5708727 L12.3609224,14.5742527 C12.3609224,15.0732636 12.7115781,15.2834382 13.0026594,15.2834382 L14.7948311,15.2834382 C14.7448256,15.3445855 14.6979068,15.379 14.6556183,15.4303145 L14.6497534,15.4297 C14.2688475,15.8890727 13.8814594,16.3426073 13.5067269,16.78508 C13.1076091,17.2567436 12.6949096,17.7419273 12.2899269,18.2323345 C12.2862228,18.2372509 12.2815927,18.2403236 12.2775799,18.2443182 C12.2646155,18.2572236 12.247947,18.2732018 12.2473297,18.3020855 C12.2454776,18.3930382 12.247021,18.5242436 12.247947,18.6299455 L12.2488731,18.7239709 C12.2491817,18.7722127 12.2896183,18.8238345 12.3393151,18.8238345 L16.0607105,18.8238345 L16.0607105,18.7697545 C16.0607105,18.5187127 16.0212,18.3598527 15.9014338,18.2464691 C15.7409224,18.0940618 15.3717461,18.1118836 15.3572384,18.1118836 L13.4900584,18.1118836 C13.5502502,18.0507364 13.6366795,17.9499509 13.6792767,17.8989436 C14.4281242,16.9927964 15.2069132,16.0433236 15.9934192,15.0873982 C16.0116311,15.0652745 16.0286082,15.03762 16.0292256,15.0084291 C16.0310776,14.8901291 16.0307689,14.7364927 16.0307689,14.6467691 C16.0304603,14.5972982 15.9890977,14.5708727 15.9384749,14.5708727 L12.3609224,14.5708727 Z" id="Clip-19" fill="#FFFFFF"></path>
                            <g id="Group-55" transform="translate(0.000000, 2.812467)">
                                <path d="M11.8310804,3.00426691 L4.44045571,6.03704873 C4.18271142,6.14275055 3.88761735,6.020456 3.78143288,5.763576 L2.98813607,3.84773055 C2.88164292,3.59115782 3.00449589,3.29740509 3.26224018,3.191396 L10.6528648,0.158921455 C10.9109178,0.0532196364 11.2060119,0.175514182 11.3121963,0.432086909 L12.1054932,2.34823964 C12.2116776,2.60481236 12.0888247,2.89856509 11.8310804,3.00426691 Z" id="Fill-22" fill="#FDD442"></path>
                                <polygon id="Fill-24" fill="#FFB74F" points="11.3079058 3.10870891 9.750019 3.74814345 8.59989297 0.970398 10.1577797 0.331270727"></polygon>
                                <path d="M39.7647277,13.8851629 L35.1169962,13.8851629 C34.7243605,13.8851629 34.4058071,13.5680575 34.4058071,13.1768993 C34.4058071,12.7860484 34.7243605,12.4692502 35.1169962,12.4692502 L39.7647277,12.4692502 C40.1573633,12.4692502 40.4759167,12.7860484 40.4759167,13.1768993 C40.4759167,13.5680575 40.1573633,13.8851629 39.7647277,13.8851629" id="Fill-26" fill="#866FE2"></path>
                                <polygon id="Fill-28" fill-opacity="0.1" fill="#000000" points="11.3920199 30.6330322 25.5756729 30.6330322 12.0640071 17.1827831 11.5426537 16.6637995 8.1830263 16.6637995 8.1830263 30.6714413"></polygon>
                                <path d="M11.5382088,27.654822 L3.5444316,27.654822 C3.26538868,27.654822 3.03943799,27.4298984 3.03943799,27.1521238 L3.03943799,25.0798765 C3.03943799,24.8024093 3.26538868,24.5771784 3.5444316,24.5771784 L11.5382088,24.5771784 C11.816943,24.5771784 12.0428937,24.8024093 12.0428937,25.0798765 L12.0428937,27.1521238 C12.0428937,27.4298984 11.816943,27.654822 11.5382088,27.654822" id="Fill-30" fill="#FDD442"></path>
                                <path d="M11.5382088,24.7363149 L3.5444316,24.7363149 C3.26538868,24.7363149 3.03943799,24.5113913 3.03943799,24.2336167 L3.03943799,22.1613695 C3.03943799,21.8839022 3.26538868,21.6586713 3.5444316,21.6586713 L11.5382088,21.6586713 C11.816943,21.6586713 12.0428937,21.8839022 12.0428937,22.1613695 L12.0428937,24.2336167 C12.0428937,24.5113913 11.816943,24.7363149 11.5382088,24.7363149" id="Fill-32" fill="#FDD442"></path>
                                <path d="M11.5382088,19.7698351 L3.5444316,19.7698351 C3.26538868,19.7698351 3.03943799,19.5449115 3.03943799,19.2671369 L3.03943799,17.1948896 C3.03943799,16.9174224 3.26538868,16.6921915 3.5444316,16.6921915 L11.5382088,16.6921915 C11.816943,16.6921915 12.0428937,16.9174224 12.0428937,17.1948896 L12.0428937,19.2671369 C12.0428937,19.5449115 11.816943,19.7698351 11.5382088,19.7698351" id="Fill-34" fill="#FDD442"></path>
                                <path d="M11.2673766,30.6747291 L3.8150168,30.6747291 C3.38657479,30.6747291 3.03931452,30.3290473 3.03931452,29.9025527 L3.03931452,28.3692618 C3.03931452,27.9427673 3.38657479,27.5970855 3.8150168,27.5970855 L11.2673766,27.5970855 C11.6958186,27.5970855 12.0430789,27.9427673 12.0430789,28.3692618 L12.0430789,29.9025527 C12.0430789,30.3290473 11.6958186,30.6747291 11.2673766,30.6747291" id="Fill-36" fill="#FDD442"></path>
                                <path id="Fill-38" fill="#F7880F"></path>
                                <path id="Fill-40" fill="#F7880F"></path>
                                <path d="M20.8617921,30.6798298 L13.4094323,30.6798298 C12.981299,30.6798298 12.6340387,30.334148 12.6340387,29.9076535 L12.6340387,28.3743625 C12.6340387,27.947868 12.981299,27.6021862 13.4094323,27.6021862 L20.8617921,27.6021862 C21.2902342,27.6021862 21.6374944,27.947868 21.6374944,28.3743625 L21.6374944,29.9076535 C21.6374944,30.334148 21.2902342,30.6798298 20.8617921,30.6798298" id="Fill-42" fill="#FDD442"></path>
                                <path d="M20.8617921,27.7613227 L13.4094323,27.7613227 C12.981299,27.7613227 12.6340387,27.4156409 12.6340387,26.9891464 L12.6340387,25.4558555 C12.6340387,25.0293609 12.981299,24.6836791 13.4094323,24.6836791 L20.8617921,24.6836791 C21.2902342,24.6836791 21.6374944,25.0293609 21.6374944,25.4558555 L21.6374944,26.9891464 C21.6374944,27.4156409 21.2902342,27.7613227 20.8617921,27.7613227" id="Fill-44" fill="#FDD442"></path>
                                <path id="Fill-46" fill="#F7880F"></path>
                                <polygon id="Fill-48" fill="#FFB74F" points="8.18268676 19.7699273 10.29619 19.7699273 10.29619 16.6922836 8.18268676 16.6922836"></polygon>
                                <polygon id="Fill-50" fill="#FFB74F" points="8.18268676 30.6713491 10.29619 30.6713491 10.29619 21.6587327 8.18268676 21.6587327"></polygon>
                                <polygon id="Fill-51" fill="#FFB74F" points="18.0038247 30.7272727 20.1173279 30.7272727 20.1173279 24.6838327 18.0038247 24.6838327"></polygon>
                                <path d="M1.99926228,13.7300209 C1.47019196,13.9887445 1.25967507,14.1983045 0.999770046,14.72497 C0.739865023,14.1983045 0.529348128,13.9887445 -3.08675799e-05,13.7300209 C0.529348128,13.4712973 0.739865023,13.2620445 0.999770046,12.7350718 C1.25967507,13.2620445 1.47019196,13.4712973 1.99926228,13.7300209" id="Fill-52" fill="#FDD442"></path>
                                <path d="M6.50790447,11.1233035 C6.06526338,11.3396235 5.88931817,11.5147689 5.67201041,11.9557053 C5.45470265,11.5147689 5.27875744,11.3396235 4.83611635,11.1233035 C5.27875744,10.9072907 5.45470265,10.731838 5.67201041,10.2912089 C5.88931817,10.731838 6.06526338,10.9072907 6.50790447,11.1233035" id="Fill-53" fill="#FFFFFF"></path>
                                <path d="M9.53030356,16.6923144 C8.81695379,17.0410689 8.53297205,17.3237598 8.1829337,18.0335598 C7.83258667,17.3237598 7.54891361,17.0410689 6.83556384,16.6923144 C7.54891361,16.3435598 7.83258667,16.0611762 8.1829337,15.3510689 C8.53297205,16.0611762 8.81695379,16.3435598 9.53030356,16.6923144" id="Fill-54" fill="#FFFFFF"></path>
                            </g>
                        </g>
                    </g>
                </g>
            </g>
        </g>
    </g>
</svg>